<?xml version="1.0" encoding="utf-8"?>
<!-- Generator: Adobe Illustrator 16.0.0, SVG Export Plug-In . SVG Version: 6.00 Build 0)  -->
<!DOCTYPE svg PUBLIC "-//W3C//DTD SVG 1.1//EN" "http://www.w3.org/Graphics/SVG/1.1/DTD/svg11.dtd">
<svg version="1.1" id="Layer_1" xmlns="http://www.w3.org/2000/svg" xmlns:xlink="http://www.w3.org/1999/xlink" x="0px" y="0px"
	 width="350px" height="53px" viewBox="0 0 350 53" enable-background="new 0 0 350 53" xml:space="preserve">
<g>
	<rect x="67.246" fill-rule="evenodd" clip-rule="evenodd" fill="#008B6E" width="41.788" height="52.583"/>
	<g>
		<path fill="#1B181C" d="M259.553,39.129c0-1.795,1.274-3.143,3.063-3.143c1.786,0,3.011,1.298,3.011,3.143
			c0,1.796-1.225,3.143-3.115,3.143C260.776,42.271,259.553,40.925,259.553,39.129z"/>
		<path fill="#1B181C" d="M295.332,40.675c-1.582,0.798-4.9,1.597-9.085,1.597c-9.698,0-16.947-5.985-16.947-17.059
			c0-10.576,7.302-17.659,17.968-17.659c4.236,0,6.992,0.898,8.167,1.497l-1.124,3.541c-1.633-0.796-4.033-1.396-6.89-1.396
			c-8.065,0-13.424,5.039-13.424,13.869c0,8.279,4.849,13.518,13.168,13.518c2.757,0,5.513-0.548,7.299-1.396L295.332,40.675z"/>
		<path fill="#1B181C" d="M306.715,31.147l-3.573,10.575h-4.593l11.738-33.621h5.309l11.74,33.621h-4.747l-3.675-10.575H306.715z
			 M318.046,27.757l-3.42-9.678c-0.765-2.196-1.276-4.19-1.786-6.137h-0.103c-0.51,1.946-1.021,4.041-1.734,6.087l-3.368,9.728
			H318.046z"/>
		<path fill="#1B181C" d="M334.993,11.794h-10.464V8.102H350v3.692h-10.515v29.929h-4.492V11.794z"/>
	</g>
	<polygon fill-rule="evenodd" clip-rule="evenodd" fill="#121E25" points="22.294,16.083 22.294,8.79 0,8.79 0,41.923 
		22.294,41.923 22.294,34.632 10.181,34.632 10.181,28.919 21.67,28.919 21.67,21.626 10.181,21.626 10.181,16.083 	"/>
	<polygon fill-rule="evenodd" clip-rule="evenodd" fill="#121E25" points="44.316,8.79 34.131,8.79 34.131,41.923 56.53,41.923 
		56.53,34.632 44.316,34.632 	"/>
	<polygon fill-rule="evenodd" clip-rule="evenodd" fill="#121E25" points="121.623,41.819 131.807,41.819 131.807,21.182 
		131.914,21.182 150.58,41.819 160.764,41.819 160.764,8.129 150.58,8.129 150.58,28.732 150.477,28.732 131.807,8.129 
		121.623,8.129 	"/>
	<path fill-rule="evenodd" clip-rule="evenodd" fill="#121E25" d="M191.264,7.017c-3.821,0.024-7.365,0.766-10.634,2.229
		c-3.273,1.46-5.916,3.489-7.932,6.083c-2.015,2.594-3.05,5.599-3.11,9.02c0.031,3.667,0.974,6.887,2.823,9.669
		c1.846,2.782,4.392,4.957,7.641,6.523c3.242,1.572,6.98,2.37,11.212,2.396c4.229-0.026,7.963-0.824,11.213-2.396
		c3.245-1.566,5.789-3.741,7.638-6.523c1.845-2.782,2.788-6.003,2.824-9.669c-0.06-3.42-1.098-6.425-3.112-9.02
		c-2.021-2.594-4.66-4.623-7.93-6.083C198.624,7.783,195.082,7.042,191.264,7.017z M191.264,15.503
		c2.052,0.024,3.91,0.448,5.572,1.272c1.664,0.824,2.992,1.908,3.98,3.247c0.99,1.342,1.497,2.805,1.521,4.375
		c-0.078,2.962-1.164,5.367-3.257,7.208c-2.088,1.842-4.694,2.796-7.816,2.853c-3.125-0.057-5.733-1.011-7.826-2.853
		c-2.084-1.841-3.172-4.245-3.248-7.208c0.02-1.57,0.528-3.032,1.517-4.375c0.987-1.338,2.318-2.422,3.979-3.247
		C187.354,15.951,189.211,15.527,191.264,15.503z"/>
	<path fill-rule="evenodd" clip-rule="evenodd" fill="#121E25" d="M245.708,8.129v17.743c0.036,1.492-0.076,2.93-0.336,4.323
		c-0.258,1.39-0.886,2.534-1.872,3.437c-0.992,0.902-2.561,1.37-4.709,1.402c-2.148-0.032-3.715-0.5-4.705-1.402
		c-0.992-0.902-1.616-2.047-1.872-3.437c-0.26-1.393-0.372-2.831-0.34-4.323V8.129h-10.186v18.951
		c-0.072,2.186,0.124,4.303,0.592,6.347c0.466,2.04,1.641,3.885,3.513,5.539c1.688,1.366,3.692,2.338,6.011,2.914
		c2.318,0.572,4.649,0.853,6.987,0.834c2.336,0.019,4.667-0.262,6.985-0.834c2.32-0.576,4.32-1.548,6.013-2.914
		c1.877-1.654,3.045-3.499,3.513-5.539c0.464-2.044,0.664-4.161,0.588-6.347V8.129H245.708z"/>
	<path fill-rule="evenodd" clip-rule="evenodd" fill="#FFFFFF" d="M90.472,41.923l8.369-9.394c1.739-1.928,3.212-4.026,4.412-6.295
		c1.2-2.264,1.827-4.621,1.876-7.063c-0.021-1.791-0.5-3.502-1.438-5.131c-0.935-1.634-2.204-3.015-3.81-4.131
		c-1.547-1.036-3.31-1.78-5.294-2.23c-1.984-0.448-3.945-0.674-5.881-0.662c-3.024,0.002-5.806,0.49-8.344,1.457
		c-2.535,0.974-4.577,2.396-6.12,4.283c-1.541,1.882-2.338,4.201-2.379,6.949c0.013,2.094,0.529,4.037,1.553,5.823
		c1.022,1.786,2.469,3.229,4.344,4.325c1.876,1.098,4.104,1.664,6.678,1.698c1.032,0,1.987-0.089,2.876-0.263
		c0.885-0.178,1.768-0.428,2.642-0.766l0.104,0.09l-11.181,11.31H90.472z M88.756,13.913c1.84,0.038,3.376,0.578,4.598,1.61
		c1.224,1.037,1.86,2.341,1.906,3.915c-0.046,1.578-0.683,2.882-1.906,3.918c-1.222,1.034-2.758,1.57-4.598,1.608
		c-1.834-0.038-3.327-0.574-4.494-1.608c-1.161-1.036-1.761-2.34-1.801-3.918c0.04-1.574,0.64-2.878,1.801-3.915
		C85.429,14.491,86.922,13.95,88.756,13.913z"/>
</g>
</svg>
