<?xml version="1.0" encoding="utf-8"?>
<!-- Generator: Adobe Illustrator 16.0.0, SVG Export Plug-In . SVG Version: 6.00 Build 0)  -->
<!DOCTYPE svg PUBLIC "-//W3C//DTD SVG 1.1//EN" "http://www.w3.org/Graphics/SVG/1.1/DTD/svg11.dtd">
<svg version="1.1" id="Layer_1" xmlns="http://www.w3.org/2000/svg" xmlns:xlink="http://www.w3.org/1999/xlink" x="0px" y="0px"
	 width="350px" height="74px" viewBox="0 0 350 74" enable-background="new 0 0 350 74" xml:space="preserve">
<g>
	<polygon fill-rule="evenodd" clip-rule="evenodd" points="30.999,25.565 30.999,16.203 0,16.203 0,58.734 30.999,58.734 
		30.999,49.377 14.153,49.377 14.153,42.04 30.128,42.04 30.128,32.676 14.153,32.676 14.153,25.565 	"/>
	<polygon fill-rule="evenodd" clip-rule="evenodd" points="53.884,16.203 39.724,16.203 39.724,58.734 70.867,58.734 70.867,49.377 
		53.884,49.377 	"/>
	<polygon fill-rule="evenodd" clip-rule="evenodd" points="174.897,58.734 189.056,58.734 189.056,32.676 189.203,32.676 
		215.157,58.734 229.315,58.734 229.315,16.203 215.157,16.203 215.157,42.213 215.015,42.213 189.056,16.203 174.897,16.203 	"/>
	<path fill-rule="evenodd" clip-rule="evenodd" d="M265.924,14.794c-5.311,0.033-10.239,0.974-14.785,2.816
		c-4.548,1.844-8.226,4.403-11.024,7.679c-2.805,3.275-4.244,7.067-4.327,11.389c0.044,4.629,1.354,8.691,3.925,12.208
		c2.565,3.512,6.109,6.258,10.621,8.233c4.514,1.985,9.709,2.994,15.591,3.023c5.877-0.029,11.075-1.038,15.587-3.023
		c4.516-1.976,8.056-4.722,10.621-8.233c2.569-3.517,3.88-7.579,3.926-12.208c-0.08-4.322-1.524-8.114-4.322-11.389
		c-2.812-3.276-6.48-5.835-11.026-7.679C276.163,15.768,271.239,14.827,265.924,14.794z M265.924,25.506
		c2.854,0.03,5.435,0.568,7.752,1.608c2.312,1.043,4.159,2.413,5.531,4.102c1.373,1.692,2.082,3.535,2.114,5.523
		c-0.105,3.74-1.619,6.771-4.527,9.097c-2.902,2.325-6.531,3.53-10.87,3.602c-4.344-0.071-7.968-1.276-10.875-3.602
		c-2.903-2.326-4.417-5.357-4.522-9.097c0.029-1.989,0.736-3.831,2.109-5.523c1.377-1.688,3.22-3.059,5.534-4.102
		C260.489,26.074,263.07,25.536,265.924,25.506z"/>
	<path fill-rule="evenodd" clip-rule="evenodd" d="M335.823,16.203v22.398c0.051,1.882-0.108,3.701-0.465,5.456
		c-0.364,1.755-1.237,3.199-2.607,4.339c-1.379,1.138-3.556,1.731-6.54,1.771c-2.994-0.039-5.168-0.633-6.545-1.771
		c-1.38-1.14-2.248-2.584-2.603-4.339c-0.368-1.755-0.521-3.574-0.475-5.456V16.203h-14.163v23.923
		c-0.102,2.762,0.175,5.434,0.827,8.013c0.643,2.574,2.272,4.905,4.882,6.994c2.347,1.725,5.134,2.95,8.357,3.678
		c3.225,0.726,6.462,1.073,9.719,1.055c3.247,0.019,6.482-0.329,9.709-1.055c3.22-0.728,6.006-1.953,8.355-3.678
		c2.609-2.089,4.237-4.42,4.885-6.994c0.651-2.579,0.923-5.251,0.817-8.013V16.203H335.823z"/>
	<g>
		<rect x="92.265" y="0.446" fill-rule="evenodd" clip-rule="evenodd" fill="#C4003E" width="56.865" height="73.107"/>
		<path fill-rule="evenodd" clip-rule="evenodd" fill="#FFFFFF" d="M122.762,58.734l11.516-12.924
			c2.394-2.655,4.419-5.541,6.07-8.662c1.651-3.116,2.514-6.359,2.582-9.719c-0.03-2.463-0.689-4.82-1.979-7.059
			c-1.286-2.251-3.033-4.149-5.24-5.686c-2.13-1.424-4.554-2.448-7.286-3.067c-2.731-0.617-5.429-0.928-8.093-0.911
			c-4.16,0.004-7.986,0.674-11.48,2.004c-3.487,1.34-6.296,3.296-8.421,5.892c-2.12,2.589-3.215,5.78-3.271,9.562
			c0.016,2.882,0.728,5.553,2.136,8.012c1.406,2.459,3.395,4.442,5.975,5.951c2.582,1.511,5.648,2.289,9.19,2.337
			c1.418,0,2.733-0.122,3.957-0.361c1.217-0.244,2.432-0.59,3.634-1.055l0.142,0.124l-15.384,15.562H122.762z M120.4,20.193
			c2.533,0.054,4.646,0.796,6.328,2.218c1.685,1.424,2.559,3.219,2.623,5.384c-0.064,2.171-0.938,3.967-2.623,5.392
			c-1.681,1.423-3.794,2.16-6.328,2.213c-2.521-0.053-4.576-0.79-6.182-2.213c-1.597-1.425-2.423-3.221-2.478-5.392
			c0.055-2.165,0.881-3.96,2.478-5.384C115.824,20.99,117.878,20.247,120.4,20.193z"/>
	</g>
</g>
</svg>
